%YAML 1.1
%TAG !u! tag:unity3d.com,2011:
--- !u!114 &11400000
MonoBehaviour:
  m_ObjectHideFlags: 0
  m_CorrespondingSourceObject: {fileID: 0}
  m_PrefabInstance: {fileID: 0}
  m_PrefabAsset: {fileID: 0}
  m_GameObject: {fileID: 0}
  m_Enabled: 1
  m_EditorHideFlags: 0
  m_Script: {fileID: 11500000, guid: 638a9edbb52091c4289e1b74c57b4fd0, type: 3}
  m_Name: Mercury
  m_EditorClassIdentifier: 
  m_objectType: 0
  m_objectMass: 1
  m_objectSize: 2
  m_objectRotation: 10
  m_kickOffForce: 1775
  m_orbitSize: 2.3
  m_objectSpeed: 4
  m_objectTexture: {fileID: 2800000, guid: 2ecc4a6f64a02f2469738c60ef70f795, type: 3}
